0 0.186176 0.123173 0.100334 0.179541
0 0.464326 0.241127 0.079153 0.198330
0 0.672241 0.400835 0.118172 0.204593
0 0.796544 0.628392 0.215162 0.296451
2 0.720178 0.529228 0.470457 0.540710
0 0.479376 0.862213 0.361204 0.271399
1 0.221851 0.462422 0.443701 0.331942
