0 0.690635 0.348643 0.076923 0.192067
0 0.449275 0.278706 0.073579 0.185804
0 0.914158 0.617954 0.131550 0.208768
0 0.171683 0.339248 0.095875 0.173278
1 0.439799 0.735908 0.426979 0.507307
2 0.500000 0.418580 0.971014 0.386221
