1 0.452620 0.488706 0.234114 0.188912
0 0.614270 0.283368 0.115942 0.119097
0 0.745262 0.465092 0.103679 0.080082
0 0.649387 0.663244 0.117057 0.086242
0 0.443701 0.732033 0.115942 0.075975
0 0.253066 0.650924 0.115942 0.069815
0 0.237458 0.347023 0.111483 0.090349
0 0.404682 0.244353 0.107023 0.082136
2 0.539576 0.492813 0.838350 0.788501
