0 0.669454 0.148225 0.172798 0.254697
0 0.690635 0.564718 0.324415 0.549061
0 0.404125 0.089770 0.121516 0.162839
0 0.154404 0.157620 0.101449 0.106472
1 0.200669 0.506263 0.372352 0.448852
2 0.528986 0.101253 0.685619 0.114823
