1 0.641026 0.687891 0.408027 0.473904
0 0.691193 0.200418 0.107023 0.192067
0 0.426979 0.277662 0.113712 0.150313
0 0.253623 0.444676 0.119287 0.133612
0 0.198439 0.791232 0.178372 0.204593
2 0.491081 0.509395 0.785953 0.747390
