0 0.389075 0.060543 0.082497 0.096033
0 0.673356 0.103340 0.089186 0.173278
0 0.893534 0.256785 0.141583 0.175365
0 0.204571 0.819415 0.257525 0.302714
0 0.968785 0.574113 0.055741 0.150313
1 0.502787 0.405010 0.452620 0.334029
2 0.717949 0.218163 0.557414 0.394572
