0 0.835563 0.505219 0.199554 0.367432
0 0.693980 0.148225 0.110368 0.258873
0 0.429766 0.058455 0.088071 0.100209
0 0.122074 0.058455 0.123746 0.112735
1 0.230769 0.458246 0.457079 0.473904
2 0.497213 0.222338 0.974359 0.423800
