1 0.454849 0.733820 0.370123 0.436326
2 0.499443 0.439457 0.976589 0.473904
0 0.081940 0.377871 0.119287 0.221294
0 0.396878 0.283925 0.082497 0.204593
0 0.653846 0.344468 0.068004 0.233820
0 0.858974 0.510438 0.125975 0.194154
