0 0.378484 0.254697 0.043478 0.104384
0 0.520067 0.282881 0.056856 0.089770
0 0.643255 0.386221 0.055741 0.075157
0 0.681717 0.540710 0.068004 0.091858
0 0.612598 0.692067 0.085842 0.089770
0 0.423634 0.741127 0.073579 0.091858
0 0.246377 0.598121 0.071349 0.127349
0 0.245819 0.375783 0.063545 0.104384
1 0.461538 0.491649 0.191750 0.202505
2 0.389075 0.569937 0.702341 0.751566
