0 0.880713 0.435282 0.211817 0.482255
0 0.196210 0.814196 0.365663 0.334029
1 0.334448 0.348643 0.410256 0.300626
2 0.568004 0.032359 0.471572 0.027140
0 0.579710 0.059499 0.102564 0.114823
0 0.323300 0.079332 0.093645 0.096033
0 0.073579 0.193111 0.082497 0.098121
