0 0.104236 0.379958 0.137124 0.167015
0 0.348941 0.258873 0.124861 0.192067
0 0.602007 0.189979 0.124861 0.200418
0 0.882386 0.265136 0.170569 0.313152
0 0.861761 0.651357 0.240803 0.371608
1 0.351728 0.599165 0.473802 0.417537
2 0.404682 0.358038 0.802676 0.315240
