0 0.686176 0.211900 0.132664 0.373695
0 0.562988 0.729645 0.336678 0.503132
0 0.478818 0.108559 0.125975 0.179541
0 0.167781 0.094990 0.137124 0.185804
1 0.175028 0.437370 0.318841 0.373695
2 0.503344 0.230689 0.953177 0.331942
