0 0.175585 0.449896 0.146042 0.306889
0 0.402453 0.315240 0.078038 0.192067
0 0.655518 0.294363 0.066890 0.183716
0 0.947603 0.339248 0.084727 0.181628
1 0.781494 0.620042 0.412486 0.313152
0 0.289298 0.814196 0.282051 0.296451
2 0.323300 0.425887 0.608696 0.263048
