1 0.358974 0.403967 0.483835 0.269311
0 0.419732 0.137787 0.114827 0.167015
0 0.664994 0.232777 0.094760 0.194154
0 0.890190 0.369520 0.134894 0.225470
0 0.559086 0.805846 0.449275 0.371608
0 0.931438 0.669102 0.112598 0.290188
2 0.497213 0.253653 0.729097 0.294363
