0 0.399108 0.111691 0.127090 0.215031
0 0.652174 0.218163 0.102564 0.177453
0 0.842252 0.394572 0.108138 0.187891
0 0.182832 0.629436 0.298774 0.549061
0 0.132664 0.156576 0.171683 0.304802
2 0.637681 0.345511 0.715719 0.528184
1 0.627648 0.569937 0.416945 0.430063
