0 0.174470 0.334029 0.266444 0.430063
0 0.139911 0.154489 0.139353 0.217119
0 0.327759 0.186848 0.078038 0.189979
0 0.506689 0.298539 0.092531 0.133612
0 0.697324 0.430063 0.101449 0.154489
0 0.892419 0.537578 0.103679 0.135699
0 0.810479 0.763048 0.312152 0.394572
1 0.539019 0.482255 0.286511 0.263048
