0 0.341137 0.149269 0.115942 0.173278
0 0.568562 0.287056 0.113712 0.131524
0 0.755295 0.469729 0.143813 0.196242
0 0.836120 0.722338 0.227425 0.279749
0 0.543478 0.851775 0.384615 0.263048
1 0.270903 0.423800 0.481605 0.363257
2 0.502230 0.385177 0.732441 0.561587
