0 0.403567 0.099165 0.107023 0.156576
0 0.627090 0.256785 0.125975 0.158664
0 0.801561 0.429019 0.129320 0.173278
0 0.873467 0.700418 0.219621 0.260960
0 0.539019 0.855950 0.366778 0.250522
1 0.336678 0.382046 0.441472 0.379958
2 0.546265 0.323591 0.746934 0.576200
