0 0.283166 0.343424 0.100334 0.223382
0 0.537904 0.281837 0.090301 0.175365
0 0.816611 0.279749 0.076923 0.196242
0 0.092531 0.528184 0.129320 0.334029
0 0.231884 0.810021 0.305463 0.338205
1 0.692865 0.569937 0.500557 0.304802
2 0.558528 0.365344 0.865106 0.175365
