0 0.678930 0.683716 0.454849 0.515658
0 0.522297 0.173278 0.246377 0.325678
0 0.254181 0.154489 0.173913 0.200418
0 0.041249 0.322547 0.060201 0.098121
1 0.150502 0.670146 0.296544 0.375783
2 0.457079 0.168058 0.824972 0.240084
