2 0.490524 0.543841 0.974359 0.903967
1 0.193980 0.702505 0.363434 0.565762
0 0.381271 0.187891 0.080268 0.196242
0 0.619287 0.443633 0.101449 0.240084
0 0.685061 0.923800 0.148272 0.118998
0 0.068562 0.179541 0.121516 0.183716
