1 0.537347 0.500000 0.218506 0.210856
0 0.753066 0.378914 0.070234 0.110647
0 0.756968 0.601253 0.091416 0.116910
0 0.578595 0.751566 0.098105 0.121086
0 0.382943 0.696242 0.108138 0.093946
0 0.319955 0.539666 0.069119 0.077244
0 0.357302 0.376827 0.070234 0.098121
0 0.477703 0.276618 0.052397 0.081420
0 0.621516 0.259916 0.074693 0.110647
2 0.610368 0.583507 0.701226 0.749478
