0 0.244147 0.186848 0.089186 0.173278
0 0.522297 0.208768 0.076923 0.221294
0 0.756410 0.329854 0.137124 0.283925
0 0.744705 0.772443 0.278707 0.417537
1 0.185061 0.554280 0.363434 0.356994
2 0.582497 0.339248 0.821628 0.286013
