0 0.550725 0.279749 0.073579 0.162839
0 0.818841 0.340292 0.081382 0.221294
0 0.301561 0.354906 0.076923 0.196242
0 0.085284 0.620042 0.139353 0.196242
2 0.502230 0.406054 0.988852 0.390397
1 0.551282 0.728601 0.438127 0.496868
