0 0.115385 0.306889 0.170569 0.325678
0 0.142698 0.708768 0.251951 0.436326
0 0.393534 0.260960 0.131550 0.217119
0 0.637681 0.344468 0.098105 0.167015
0 0.876254 0.448852 0.142698 0.158664
1 0.661093 0.673278 0.454849 0.382046
2 0.599220 0.414405 0.797101 0.365344
