1 0.370123 0.587683 0.416945 0.432150
0 0.144928 0.377871 0.113712 0.150313
0 0.347269 0.216075 0.134894 0.160752
0 0.596990 0.104384 0.152731 0.200418
0 0.855630 0.162839 0.210702 0.292276
0 0.814939 0.622129 0.336678 0.492693
2 0.370123 0.347599 0.733556 0.507307
