0 0.397436 0.197286 0.117057 0.210856
0 0.653289 0.249478 0.091416 0.181628
0 0.888517 0.382046 0.115942 0.187891
0 0.118172 0.253653 0.167224 0.277662
1 0.648829 0.600209 0.465998 0.398747
2 0.595318 0.344468 0.795987 0.342380
