1 0.534560 0.287056 0.438127 0.373695
0 0.754738 0.781837 0.405797 0.323591
0 0.092531 0.436326 0.162765 0.513570
0 0.936455 0.304802 0.118172 0.204593
0 0.772018 0.120042 0.085842 0.123173
2 0.853958 0.258873 0.243032 0.338205
