0 0.426421 0.625261 0.322185 0.415449
0 0.215719 0.587683 0.195095 0.235908
0 0.294872 0.403967 0.083612 0.098121
0 0.475474 0.276618 0.114827 0.148225
0 0.686176 0.141962 0.103679 0.171190
2 0.475474 0.473904 0.768116 0.751566
1 0.668896 0.351775 0.347826 0.265136
