2 0.500000 0.579332 0.991081 0.820459
0 0.509476 0.196242 0.055741 0.175365
0 0.708473 0.252610 0.043478 0.137787
0 0.861761 0.425887 0.073579 0.150313
0 0.875697 0.702505 0.121516 0.177453
0 0.591973 0.874739 0.091416 0.212944
0 0.253066 0.745303 0.102564 0.183716
0 0.187848 0.455115 0.090301 0.171190
0 0.318283 0.263048 0.054627 0.146138
1 0.531215 0.510438 0.315496 0.294363
