2 0.712932 0.220251 0.554069 0.365344
1 0.235786 0.301670 0.458194 0.340292
0 0.641583 0.669102 0.282051 0.565762
0 0.836678 0.258873 0.170569 0.313152
0 0.625975 0.101253 0.085842 0.189979
0 0.371237 0.068894 0.084727 0.116910
0 0.057971 0.055324 0.075808 0.068894
