0 0.326644 0.382046 0.089186 0.137787
0 0.531773 0.280793 0.080268 0.131524
0 0.743032 0.206681 0.094760 0.162839
0 0.864548 0.387265 0.259755 0.419624
0 0.188963 0.704593 0.344482 0.402923
0 0.134894 0.481211 0.124861 0.152401
1 0.518395 0.477035 0.361204 0.223382
