0 0.320513 0.545929 0.277592 0.469729
0 0.333333 0.137787 0.127090 0.258873
0 0.599220 0.089770 0.117057 0.167015
0 0.843367 0.145094 0.092531 0.127349
1 0.801561 0.497912 0.379041 0.432150
2 0.526756 0.122129 0.808250 0.135699
