0 0.049610 0.338205 0.081382 0.196242
0 0.336120 0.264092 0.074693 0.177453
0 0.594760 0.311065 0.079153 0.212944
0 0.810479 0.438413 0.153846 0.367432
0 0.702341 0.817328 0.305463 0.306889
2 0.683389 0.399791 0.619844 0.248434
1 0.213489 0.616910 0.422520 0.327766
