0 0.642140 0.507307 0.285396 0.421712
0 0.710145 0.296451 0.164994 0.242171
0 0.518952 0.280793 0.081382 0.106472
0 0.335563 0.373695 0.078038 0.133612
0 0.110925 0.479123 0.092531 0.127349
1 0.289298 0.617954 0.402453 0.258873
2 0.489409 0.445720 0.969900 0.344468
