2 0.460424 0.521561 0.824972 0.661191
0 0.790412 0.496920 0.102564 0.094456
0 0.773133 0.320329 0.079153 0.119097
0 0.650502 0.216632 0.072464 0.121150
0 0.449833 0.219713 0.063545 0.114990
0 0.287625 0.363450 0.100334 0.131417
0 0.264214 0.581109 0.102564 0.131417
0 0.453177 0.701232 0.103679 0.125257
0 0.666667 0.652977 0.124861 0.127310
1 0.532330 0.446612 0.268673 0.256674
