0 0.227982 0.117954 0.083612 0.164927
0 0.034560 0.267223 0.064660 0.192067
0 0.288740 0.766180 0.202899 0.405010
0 0.863991 0.653445 0.185061 0.283925
0 0.875139 0.338205 0.133779 0.208768
0 0.717391 0.182672 0.085842 0.156576
0 0.493311 0.113779 0.063545 0.135699
1 0.437570 0.393528 0.438127 0.319415
2 0.498328 0.230689 0.963211 0.273486
