1 0.521739 0.487474 0.256410 0.240084
2 0.546265 0.555324 0.880713 0.839248
0 0.766444 0.253653 0.081382 0.181628
0 0.926421 0.493737 0.107023 0.202505
0 0.763099 0.777662 0.141583 0.194154
0 0.416388 0.835073 0.134894 0.154489
0 0.207358 0.613779 0.129320 0.129436
0 0.230212 0.390397 0.083612 0.129436
0 0.363434 0.240084 0.080268 0.125261
0 0.562430 0.187891 0.068004 0.158664
