0 0.432553 0.319415 0.046823 0.112735
0 0.586957 0.296451 0.036789 0.112735
0 0.724080 0.350731 0.039019 0.121086
0 0.782051 0.516701 0.059086 0.131524
0 0.670011 0.713987 0.057971 0.137787
0 0.443701 0.753653 0.060201 0.100209
0 0.294314 0.611691 0.062430 0.125261
0 0.323857 0.439457 0.043478 0.102296
1 0.535674 0.517745 0.210702 0.200418
2 0.554069 0.615866 0.711260 0.730689
